\relax 
\@writefile{lof}{\contentsline {figure}{\numberline {1}{\ignorespaces Error function from -2 to 3 with 0.1 step.}}{1}}
\newlabel{fig:err}{{1}{1}}
\@writefile{lof}{\contentsline {figure}{\numberline {2}{\ignorespaces Error function from -3 to 3 with 0.1 step, together with some 1th and 6th order Taylor expansion.}}{1}}
\newlabel{fig:err2}{{2}{1}}
