<?xml version="1.0" encoding="utf-8"  standalone="no"?>
<!DOCTYPE svg PUBLIC "-//W3C//DTD SVG 1.1//EN"
 "http://www.w3.org/Graphics/SVG/1.1/DTD/svg11.dtd">
<svg 
 width="600" height="480"
 viewBox="0 0 600 480"
 xmlns="http://www.w3.org/2000/svg"
 xmlns:xlink="http://www.w3.org/1999/xlink"
>

<title>Gnuplot</title>
<desc>Produced by GNUPLOT 5.0 patchlevel 3 </desc>

<g id="gnuplot_canvas">

<rect x="0" y="0" width="600" height="480" fill="#ffffff"/>
<defs>

	<circle id='gpDot' r='0.5' stroke-width='0.5'/>
	<path id='gpPt0' stroke-width='0.222' stroke='currentColor' d='M-1,0 h2 M0,-1 v2'/>
	<path id='gpPt1' stroke-width='0.222' stroke='currentColor' d='M-1,-1 L1,1 M1,-1 L-1,1'/>
	<path id='gpPt2' stroke-width='0.222' stroke='currentColor' d='M-1,0 L1,0 M0,-1 L0,1 M-1,-1 L1,1 M-1,1 L1,-1'/>
	<rect id='gpPt3' stroke-width='0.222' stroke='currentColor' x='-1' y='-1' width='2' height='2'/>
	<rect id='gpPt4' stroke-width='0.222' stroke='currentColor' fill='currentColor' x='-1' y='-1' width='2' height='2'/>
	<circle id='gpPt5' stroke-width='0.222' stroke='currentColor' cx='0' cy='0' r='1'/>
	<use xlink:href='#gpPt5' id='gpPt6' fill='currentColor' stroke='none'/>
	<path id='gpPt7' stroke-width='0.222' stroke='currentColor' d='M0,-1.33 L-1.33,0.67 L1.33,0.67 z'/>
	<use xlink:href='#gpPt7' id='gpPt8' fill='currentColor' stroke='none'/>
	<use xlink:href='#gpPt7' id='gpPt9' stroke='currentColor' transform='rotate(180)'/>
	<use xlink:href='#gpPt9' id='gpPt10' fill='currentColor' stroke='none'/>
	<use xlink:href='#gpPt3' id='gpPt11' stroke='currentColor' transform='rotate(45)'/>
	<use xlink:href='#gpPt11' id='gpPt12' fill='currentColor' stroke='none'/>
	<path id='gpPt13' stroke-width='0.222' stroke='currentColor' d='M0,1.330 L1.265,0.411 L0.782,-1.067 L-0.782,-1.076 L-1.265,0.411 z'/>
	<use xlink:href='#gpPt13' id='gpPt14' fill='currentColor' stroke='none'/>
	<filter id='textbox' filterUnits='objectBoundingBox' x='0' y='0' height='1' width='1'>
	  <feFlood flood-color='#FFFFFF' flood-opacity='1' result='bgnd'/>
	  <feComposite in='SourceGraphic' in2='bgnd' operator='atop'/>
	</filter>
	<filter id='greybox' filterUnits='objectBoundingBox' x='0' y='0' height='1' width='1'>
	  <feFlood flood-color='lightgrey' flood-opacity='1' result='grey'/>
	  <feComposite in='SourceGraphic' in2='grey' operator='atop'/>
	</filter>
</defs>
<g fill="none" color="#FFFFFF" stroke="currentColor" stroke-width="1.00" stroke-linecap="butt" stroke-linejoin="miter">
</g>
<g fill="none" color="black" stroke="currentColor" stroke-width="1.00" stroke-linecap="butt" stroke-linejoin="miter">
	<path stroke='black'  d='M89.2,155.4 L80.2,155.4 M566.0,155.4 L575.0,155.4  '/>	<g transform="translate(71.9,159.9)" stroke="none" fill="black" font-family="Arial" font-size="12.00"  text-anchor="end">
		<text><tspan font-family="Arial" > 0</tspan></text>
	</g>
</g>
<g fill="none" color="black" stroke="currentColor" stroke-width="1.00" stroke-linecap="butt" stroke-linejoin="miter">
	<path stroke='black'  d='M89.2,143.9 L80.2,143.9 M566.0,143.9 L575.0,143.9  '/>	<g transform="translate(71.9,148.4)" stroke="none" fill="black" font-family="Arial" font-size="12.00"  text-anchor="end">
		<text><tspan font-family="Arial" > 0.05</tspan></text>
	</g>
</g>
<g fill="none" color="black" stroke="currentColor" stroke-width="1.00" stroke-linecap="butt" stroke-linejoin="miter">
	<path stroke='black'  d='M89.2,132.3 L80.2,132.3 M566.0,132.3 L575.0,132.3  '/>	<g transform="translate(71.9,136.8)" stroke="none" fill="black" font-family="Arial" font-size="12.00"  text-anchor="end">
		<text><tspan font-family="Arial" > 0.1</tspan></text>
	</g>
</g>
<g fill="none" color="black" stroke="currentColor" stroke-width="1.00" stroke-linecap="butt" stroke-linejoin="miter">
	<path stroke='black'  d='M89.2,120.8 L80.2,120.8 M566.0,120.8 L575.0,120.8  '/>	<g transform="translate(71.9,125.3)" stroke="none" fill="black" font-family="Arial" font-size="12.00"  text-anchor="end">
		<text><tspan font-family="Arial" > 0.15</tspan></text>
	</g>
</g>
<g fill="none" color="black" stroke="currentColor" stroke-width="1.00" stroke-linecap="butt" stroke-linejoin="miter">
	<path stroke='black'  d='M89.2,109.2 L80.2,109.2 M566.0,109.2 L575.0,109.2  '/>	<g transform="translate(71.9,113.7)" stroke="none" fill="black" font-family="Arial" font-size="12.00"  text-anchor="end">
		<text><tspan font-family="Arial" > 0.2</tspan></text>
	</g>
</g>
<g fill="none" color="black" stroke="currentColor" stroke-width="1.00" stroke-linecap="butt" stroke-linejoin="miter">
	<path stroke='black'  d='M89.2,97.7 L80.2,97.7 M566.0,97.7 L575.0,97.7  '/>	<g transform="translate(71.9,102.2)" stroke="none" fill="black" font-family="Arial" font-size="12.00"  text-anchor="end">
		<text><tspan font-family="Arial" > 0.25</tspan></text>
	</g>
</g>
<g fill="none" color="black" stroke="currentColor" stroke-width="1.00" stroke-linecap="butt" stroke-linejoin="miter">
	<path stroke='black'  d='M89.2,86.2 L80.2,86.2 M566.0,86.2 L575.0,86.2  '/>	<g transform="translate(71.9,90.7)" stroke="none" fill="black" font-family="Arial" font-size="12.00"  text-anchor="end">
		<text><tspan font-family="Arial" > 0.3</tspan></text>
	</g>
</g>
<g fill="none" color="black" stroke="currentColor" stroke-width="1.00" stroke-linecap="butt" stroke-linejoin="miter">
	<path stroke='black'  d='M89.2,74.6 L80.2,74.6 M566.0,74.6 L575.0,74.6  '/>	<g transform="translate(71.9,79.1)" stroke="none" fill="black" font-family="Arial" font-size="12.00"  text-anchor="end">
		<text><tspan font-family="Arial" > 0.35</tspan></text>
	</g>
</g>
<g fill="none" color="black" stroke="currentColor" stroke-width="1.00" stroke-linecap="butt" stroke-linejoin="miter">
	<path stroke='black'  d='M89.2,63.1 L80.2,63.1 M566.0,63.1 L575.0,63.1  '/>	<g transform="translate(71.9,67.6)" stroke="none" fill="black" font-family="Arial" font-size="12.00"  text-anchor="end">
		<text><tspan font-family="Arial" > 0.4</tspan></text>
	</g>
</g>
<g fill="none" color="black" stroke="currentColor" stroke-width="1.00" stroke-linecap="butt" stroke-linejoin="miter">
	<path stroke='black'  d='M89.2,155.4 L89.2,164.4 M89.2,63.1 L89.2,54.1  '/>	<g transform="translate(89.2,186.9)" stroke="none" fill="black" font-family="Arial" font-size="12.00"  text-anchor="middle">
		<text><tspan font-family="Arial" > 0</tspan></text>
	</g>
</g>
<g fill="none" color="black" stroke="currentColor" stroke-width="1.00" stroke-linecap="butt" stroke-linejoin="miter">
	<path stroke='black'  d='M184.6,155.4 L184.6,164.4 M184.6,63.1 L184.6,54.1  '/>	<g transform="translate(184.6,186.9)" stroke="none" fill="black" font-family="Arial" font-size="12.00"  text-anchor="middle">
		<text><tspan font-family="Arial" > 2</tspan></text>
	</g>
</g>
<g fill="none" color="black" stroke="currentColor" stroke-width="1.00" stroke-linecap="butt" stroke-linejoin="miter">
	<path stroke='black'  d='M279.9,155.4 L279.9,164.4 M279.9,63.1 L279.9,54.1  '/>	<g transform="translate(279.9,186.9)" stroke="none" fill="black" font-family="Arial" font-size="12.00"  text-anchor="middle">
		<text><tspan font-family="Arial" > 4</tspan></text>
	</g>
</g>
<g fill="none" color="black" stroke="currentColor" stroke-width="1.00" stroke-linecap="butt" stroke-linejoin="miter">
	<path stroke='black'  d='M375.3,155.4 L375.3,164.4 M375.3,63.1 L375.3,54.1  '/>	<g transform="translate(375.3,186.9)" stroke="none" fill="black" font-family="Arial" font-size="12.00"  text-anchor="middle">
		<text><tspan font-family="Arial" > 6</tspan></text>
	</g>
</g>
<g fill="none" color="black" stroke="currentColor" stroke-width="1.00" stroke-linecap="butt" stroke-linejoin="miter">
	<path stroke='black'  d='M470.6,155.4 L470.6,164.4 M470.6,63.1 L470.6,54.1  '/>	<g transform="translate(470.6,186.9)" stroke="none" fill="black" font-family="Arial" font-size="12.00"  text-anchor="middle">
		<text><tspan font-family="Arial" > 8</tspan></text>
	</g>
</g>
<g fill="none" color="black" stroke="currentColor" stroke-width="1.00" stroke-linecap="butt" stroke-linejoin="miter">
	<path stroke='black'  d='M566.0,155.4 L566.0,164.4 M566.0,63.1 L566.0,54.1  '/>	<g transform="translate(566.0,186.9)" stroke="none" fill="black" font-family="Arial" font-size="12.00"  text-anchor="middle">
		<text><tspan font-family="Arial" > 10</tspan></text>
	</g>
</g>
<g fill="none" color="black" stroke="currentColor" stroke-width="1.00" stroke-linecap="butt" stroke-linejoin="miter">
</g>
<g fill="none" color="black" stroke="currentColor" stroke-width="1.00" stroke-linecap="butt" stroke-linejoin="miter">
	<path stroke='black'  d='M89.2,63.1 L89.2,155.4 L566.0,155.4 L566.0,63.1 L89.2,63.1 Z  '/></g>
<g fill="none" color="black" stroke="currentColor" stroke-width="1.00" stroke-linecap="butt" stroke-linejoin="miter">
	<g transform="translate(17.6,109.3) rotate(270)" stroke="none" fill="black" font-family="Arial" font-size="12.00"  text-anchor="middle">
		<text><tspan font-family="Arial" >F</tspan><tspan font-family="Arial"  font-size="9.6" dy="3.60px">e</tspan><tspan font-family="Arial"  font-size="12.0" dy="-3.60px">(r)</tspan></text>
	</g>
</g>
<g fill="none" color="black" stroke="currentColor" stroke-width="1.00" stroke-linecap="butt" stroke-linejoin="miter">
	<g transform="translate(327.6,213.9)" stroke="none" fill="black" font-family="Arial" font-size="12.00"  text-anchor="middle">
		<text><tspan font-family="Arial" >r [a</tspan><tspan font-family="Arial"  font-size="9.6" dy="3.60px">Bohr</tspan><tspan font-family="Arial"  font-size="12.0" dy="-3.60px">]</tspan></text>
	</g>
</g>
<g fill="none" color="black" stroke="currentColor" stroke-width="1.00" stroke-linecap="butt" stroke-linejoin="miter">
	<g transform="translate(327.6,31.6)" stroke="none" fill="black" font-family="Arial" font-size="12.00"  text-anchor="middle">
		<text><tspan font-family="Arial" >Hydrogen s-wave shooting to F</tspan><tspan font-family="Arial"  font-size="9.6" dy="3.60px">e</tspan><tspan font-family="Arial"  font-size="12.0" dy="-3.60px">(r</tspan><tspan font-family="Arial"  font-size="9.6" dy="3.60px">max</tspan><tspan font-family="Arial"  font-size="12.0" dy="-3.60px">)=0</tspan></text>
	</g>
</g>
	<g id="gnuplot_plot_1a" ><title>rmax=2</title>
<g fill="none" color="black" stroke="currentColor" stroke-width="1.00" stroke-linecap="butt" stroke-linejoin="miter">
	<g transform="translate(390.3,85.6)" stroke="none" fill="black" font-family="Arial" font-size="12.00"  text-anchor="end">
		<text><tspan font-family="Arial" >r</tspan><tspan font-family="Arial"  font-size="9.6" dy="3.60px">max</tspan><tspan font-family="Arial"  font-size="12.0" dy="-3.60px">=2</tspan></text>
	</g>
</g>
<g fill="none" color="black" stroke="currentColor" stroke-width="1.00" stroke-linecap="butt" stroke-linejoin="miter">
	<path stroke='rgb(148,   0, 211)'  d='M398.6,81.1 L440.8,81.1 M89.2,155.4 L90.7,148.4 L92.2,141.9 L93.7,135.7 L95.2,130.0 L96.7,124.7
		L98.1,119.7 L99.6,115.1 L101.1,110.9 L102.6,106.9 L104.1,103.4 L105.6,100.1 L107.1,97.1 L108.6,94.4
		L110.1,92.0 L111.6,89.9 L113.0,88.0 L114.5,86.4 L116.0,85.0 L117.5,83.8 L119.0,82.8 L120.5,82.1
		L122.0,81.6 L123.5,81.2 L125.0,81.0 L126.5,81.0 L127.9,81.2 L129.4,81.6 L130.9,82.0 L132.4,82.7
		L133.9,83.4 L135.4,84.3 L136.9,85.4 L138.4,86.5 L139.9,87.8 L141.4,89.2 L142.8,90.6 L144.3,92.2
		L145.8,93.9 L147.3,95.6 L148.8,97.4 L150.3,99.3 L151.8,101.3 L153.3,103.4 L154.8,105.5 L156.3,107.6
		L157.7,109.8 L159.2,112.1 L160.7,114.4 L162.2,116.8 L163.7,119.2 L165.2,121.6 L166.7,124.1 L168.2,126.6
		L169.7,129.1 L171.2,131.7 L172.6,134.2 L174.1,136.8 L175.6,139.4 L177.1,142.0 L178.6,144.7 L180.1,147.3
		L181.6,150.0 L183.1,152.6 L184.6,155.2  '/></g>
	</g>
	<g id="gnuplot_plot_2a" ><title>rmax=3</title>
<g fill="none" color="black" stroke="currentColor" stroke-width="1.00" stroke-linecap="butt" stroke-linejoin="miter">
	<g transform="translate(390.3,103.6)" stroke="none" fill="black" font-family="Arial" font-size="12.00"  text-anchor="end">
		<text><tspan font-family="Arial" >r</tspan><tspan font-family="Arial"  font-size="9.6" dy="3.60px">max</tspan><tspan font-family="Arial"  font-size="12.0" dy="-3.60px">=3</tspan></text>
	</g>
</g>
<g fill="none" color="black" stroke="currentColor" stroke-width="1.00" stroke-linecap="butt" stroke-linejoin="miter">
	<path stroke='rgb(  0, 158, 115)'  d='M398.6,99.1 L440.8,99.1 M89.2,155.4 L91.4,145.1 L93.7,135.7 L95.9,127.2 L98.1,119.6 L100.4,112.7
		L102.6,106.5 L104.8,101.0 L107.1,96.2 L109.3,91.9 L111.6,88.2 L113.8,84.9 L116.0,82.2 L118.3,79.8
		L120.5,77.9 L122.7,76.4 L125.0,75.2 L127.2,74.3 L129.4,73.7 L131.7,73.4 L133.9,73.4 L136.1,73.5
		L138.4,73.9 L140.6,74.5 L142.8,75.3 L145.1,76.2 L147.3,77.3 L149.5,78.5 L151.8,79.8 L154.0,81.3
		L156.3,82.8 L158.5,84.5 L160.7,86.2 L163.0,88.0 L165.2,89.8 L167.4,91.8 L169.7,93.7 L171.9,95.8
		L174.1,97.8 L176.4,99.9 L178.6,102.0 L180.8,104.2 L183.1,106.4 L185.3,108.5 L187.5,110.7 L189.8,113.0
		L192.0,115.2 L194.2,117.4 L196.5,119.7 L198.7,121.9 L201.0,124.1 L203.2,126.4 L205.4,128.6 L207.7,130.9
		L209.9,133.1 L212.1,135.3 L214.4,137.6 L216.6,139.8 L218.8,142.0 L221.1,144.3 L223.3,146.5 L225.5,148.7
		L227.8,150.9 L230.0,153.1 L232.2,155.3  '/></g>
	</g>
	<g id="gnuplot_plot_3a" ><title>rmax=4</title>
<g fill="none" color="black" stroke="currentColor" stroke-width="1.00" stroke-linecap="butt" stroke-linejoin="miter">
	<g transform="translate(390.3,121.6)" stroke="none" fill="black" font-family="Arial" font-size="12.00"  text-anchor="end">
		<text><tspan font-family="Arial" >r</tspan><tspan font-family="Arial"  font-size="9.6" dy="3.60px">max</tspan><tspan font-family="Arial"  font-size="12.0" dy="-3.60px">=4</tspan></text>
	</g>
</g>
<g fill="none" color="black" stroke="currentColor" stroke-width="1.00" stroke-linecap="butt" stroke-linejoin="miter">
	<path stroke='rgb( 86, 180, 233)'  d='M398.6,117.1 L440.8,117.1 M89.2,155.4 L92.2,141.9 L95.2,129.9 L98.1,119.5 L101.1,110.5 L104.1,102.7
		L107.1,96.0 L110.1,90.3 L113.0,85.5 L116.0,81.6 L119.0,78.4 L122.0,75.9 L125.0,74.0 L127.9,72.6
		L130.9,71.7 L133.9,71.3 L136.9,71.2 L139.9,71.5 L142.8,72.0 L145.8,72.9 L148.8,73.9 L151.8,75.2
		L154.8,76.6 L157.7,78.2 L160.7,80.0 L163.7,81.8 L166.7,83.7 L169.7,85.7 L172.6,87.7 L175.6,89.8
		L178.6,92.0 L181.6,94.1 L184.6,96.3 L187.5,98.5 L190.5,100.7 L193.5,102.8 L196.5,105.0 L199.5,107.2
		L202.4,109.3 L205.4,111.4 L208.4,113.5 L211.4,115.6 L214.4,117.6 L217.3,119.6 L220.3,121.5 L223.3,123.5
		L226.3,125.4 L229.3,127.3 L232.2,129.1 L235.2,130.9 L238.2,132.7 L241.2,134.4 L244.2,136.2 L247.1,137.9
		L250.1,139.5 L253.1,141.2 L256.1,142.8 L259.1,144.4 L262.0,146.0 L265.0,147.6 L268.0,149.1 L271.0,150.7
		L274.0,152.2 L276.9,153.8 L279.9,155.3  '/></g>
	</g>
	<g id="gnuplot_plot_4a" ><title>rmax=5</title>
<g fill="none" color="black" stroke="currentColor" stroke-width="1.00" stroke-linecap="butt" stroke-linejoin="miter">
	<g transform="translate(498.9,85.6)" stroke="none" fill="black" font-family="Arial" font-size="12.00"  text-anchor="end">
		<text><tspan font-family="Arial" >r</tspan><tspan font-family="Arial"  font-size="9.6" dy="3.60px">max</tspan><tspan font-family="Arial"  font-size="12.0" dy="-3.60px">=5</tspan></text>
	</g>
</g>
<g fill="none" color="black" stroke="currentColor" stroke-width="1.00" stroke-linecap="butt" stroke-linejoin="miter">
	<path stroke='rgb(230, 159,   0)'  d='M507.2,81.1 L549.4,81.1 M89.2,155.4 L92.9,138.7 L96.7,124.6 L100.4,112.6 L104.1,102.7 L107.8,94.4
		L111.6,87.7 L115.3,82.4 L119.0,78.2 L122.7,75.1 L126.5,72.9 L130.2,71.5 L133.9,70.8 L137.6,70.7
		L141.4,71.0 L145.1,71.8 L148.8,73.0 L152.5,74.5 L156.3,76.2 L160.0,78.1 L163.7,80.2 L167.4,82.5
		L171.2,84.8 L174.9,87.2 L178.6,89.7 L182.3,92.2 L186.1,94.7 L189.8,97.2 L193.5,99.6 L197.2,102.1
		L201.0,104.5 L204.7,106.9 L208.4,109.2 L212.1,111.5 L215.9,113.7 L219.6,115.8 L223.3,117.9 L227.0,120.0
		L230.8,121.9 L234.5,123.8 L238.2,125.6 L241.9,127.4 L245.7,129.1 L249.4,130.7 L253.1,132.3 L256.8,133.9
		L260.6,135.3 L264.3,136.7 L268.0,138.1 L271.7,139.4 L275.5,140.7 L279.2,141.9 L282.9,143.1 L286.6,144.2
		L290.4,145.4 L294.1,146.4 L297.8,147.5 L301.5,148.5 L305.3,149.5 L309.0,150.5 L312.7,151.5 L316.4,152.4
		L320.2,153.4 L323.9,154.3 L327.6,155.2  '/></g>
	</g>
	<g id="gnuplot_plot_5a" ><title>rmax=10</title>
<g fill="none" color="black" stroke="currentColor" stroke-width="1.00" stroke-linecap="butt" stroke-linejoin="miter">
	<g transform="translate(498.9,103.6)" stroke="none" fill="black" font-family="Arial" font-size="12.00"  text-anchor="end">
		<text><tspan font-family="Arial" >r</tspan><tspan font-family="Arial"  font-size="9.6" dy="3.60px">max</tspan><tspan font-family="Arial"  font-size="12.0" dy="-3.60px">=10</tspan></text>
	</g>
</g>
<g fill="none" color="black" stroke="currentColor" stroke-width="1.00" stroke-linecap="butt" stroke-linejoin="miter">
	<path stroke='rgb(240, 228,  66)'  d='M507.2,99.1 L549.4,99.1 M89.2,155.4 L96.7,124.6 L104.1,102.6 L111.6,87.7 L119.0,78.2 L126.5,72.9
		L133.9,70.7 L141.4,70.9 L148.8,72.8 L156.3,75.9 L163.7,79.8 L171.2,84.3 L178.6,89.1 L186.1,93.9
		L193.5,98.8 L201.0,103.5 L208.4,108.0 L215.9,112.4 L223.3,116.4 L230.8,120.2 L238.2,123.7 L245.7,126.9
		L253.1,129.9 L260.6,132.6 L268.0,135.1 L275.5,137.3 L282.9,139.3 L290.4,141.1 L297.8,142.7 L305.3,144.1
		L312.7,145.4 L320.2,146.6 L327.6,147.6 L335.1,148.5 L342.5,149.4 L350.0,150.1 L357.4,150.7 L364.9,151.3
		L372.3,151.8 L379.8,152.2 L387.2,152.6 L394.7,153.0 L402.1,153.3 L409.6,153.5 L417.0,153.8 L424.5,154.0
		L431.9,154.2 L439.4,154.3 L446.8,154.5 L454.3,154.6 L461.7,154.7 L469.2,154.8 L476.6,154.9 L484.1,154.9
		L491.5,155.0 L499.0,155.1 L506.4,155.1 L513.9,155.2 L521.3,155.2 L528.8,155.2 L536.2,155.3 L543.7,155.3
		L551.1,155.3 L558.6,155.4 L566.0,155.4  '/></g>
	</g>
	<g id="gnuplot_plot_6a" ><title>exact</title>
<g fill="none" color="black" stroke="currentColor" stroke-width="1.00" stroke-linecap="butt" stroke-linejoin="miter">
	<g transform="translate(498.9,121.6)" stroke="none" fill="black" font-family="Arial" font-size="12.00"  text-anchor="end">
		<text><tspan font-family="Arial" >exact</tspan></text>
	</g>
</g>
<g fill="none" color="black" stroke="currentColor" stroke-width="1.00" stroke-linecap="butt" stroke-linejoin="miter">
	<use xlink:href='#gpPt1' transform='translate(89.2,155.4) scale(4.50)' color='rgb(  0, 158, 115)'/>
	<use xlink:href='#gpPt1' transform='translate(96.7,124.6) scale(4.50)' color='rgb(  0, 158, 115)'/>
	<use xlink:href='#gpPt1' transform='translate(104.1,102.6) scale(4.50)' color='rgb(  0, 158, 115)'/>
	<use xlink:href='#gpPt1' transform='translate(111.6,87.7) scale(4.50)' color='rgb(  0, 158, 115)'/>
	<use xlink:href='#gpPt1' transform='translate(119.0,78.2) scale(4.50)' color='rgb(  0, 158, 115)'/>
	<use xlink:href='#gpPt1' transform='translate(126.5,72.9) scale(4.50)' color='rgb(  0, 158, 115)'/>
	<use xlink:href='#gpPt1' transform='translate(133.9,70.7) scale(4.50)' color='rgb(  0, 158, 115)'/>
	<use xlink:href='#gpPt1' transform='translate(141.4,70.9) scale(4.50)' color='rgb(  0, 158, 115)'/>
	<use xlink:href='#gpPt1' transform='translate(148.8,72.8) scale(4.50)' color='rgb(  0, 158, 115)'/>
	<use xlink:href='#gpPt1' transform='translate(156.3,75.9) scale(4.50)' color='rgb(  0, 158, 115)'/>
	<use xlink:href='#gpPt1' transform='translate(163.7,79.8) scale(4.50)' color='rgb(  0, 158, 115)'/>
	<use xlink:href='#gpPt1' transform='translate(171.2,84.3) scale(4.50)' color='rgb(  0, 158, 115)'/>
	<use xlink:href='#gpPt1' transform='translate(178.6,89.0) scale(4.50)' color='rgb(  0, 158, 115)'/>
	<use xlink:href='#gpPt1' transform='translate(186.1,93.9) scale(4.50)' color='rgb(  0, 158, 115)'/>
	<use xlink:href='#gpPt1' transform='translate(193.5,98.8) scale(4.50)' color='rgb(  0, 158, 115)'/>
	<use xlink:href='#gpPt1' transform='translate(201.0,103.5) scale(4.50)' color='rgb(  0, 158, 115)'/>
	<use xlink:href='#gpPt1' transform='translate(208.4,108.0) scale(4.50)' color='rgb(  0, 158, 115)'/>
	<use xlink:href='#gpPt1' transform='translate(215.9,112.4) scale(4.50)' color='rgb(  0, 158, 115)'/>
	<use xlink:href='#gpPt1' transform='translate(223.3,116.4) scale(4.50)' color='rgb(  0, 158, 115)'/>
	<use xlink:href='#gpPt1' transform='translate(230.8,120.2) scale(4.50)' color='rgb(  0, 158, 115)'/>
	<use xlink:href='#gpPt1' transform='translate(238.2,123.7) scale(4.50)' color='rgb(  0, 158, 115)'/>
	<use xlink:href='#gpPt1' transform='translate(245.7,126.9) scale(4.50)' color='rgb(  0, 158, 115)'/>
	<use xlink:href='#gpPt1' transform='translate(253.1,129.9) scale(4.50)' color='rgb(  0, 158, 115)'/>
	<use xlink:href='#gpPt1' transform='translate(260.6,132.6) scale(4.50)' color='rgb(  0, 158, 115)'/>
	<use xlink:href='#gpPt1' transform='translate(268.0,135.0) scale(4.50)' color='rgb(  0, 158, 115)'/>
	<use xlink:href='#gpPt1' transform='translate(275.5,137.3) scale(4.50)' color='rgb(  0, 158, 115)'/>
	<use xlink:href='#gpPt1' transform='translate(282.9,139.3) scale(4.50)' color='rgb(  0, 158, 115)'/>
	<use xlink:href='#gpPt1' transform='translate(290.4,141.1) scale(4.50)' color='rgb(  0, 158, 115)'/>
	<use xlink:href='#gpPt1' transform='translate(297.8,142.7) scale(4.50)' color='rgb(  0, 158, 115)'/>
	<use xlink:href='#gpPt1' transform='translate(305.3,144.1) scale(4.50)' color='rgb(  0, 158, 115)'/>
	<use xlink:href='#gpPt1' transform='translate(312.7,145.4) scale(4.50)' color='rgb(  0, 158, 115)'/>
	<use xlink:href='#gpPt1' transform='translate(320.2,146.6) scale(4.50)' color='rgb(  0, 158, 115)'/>
	<use xlink:href='#gpPt1' transform='translate(327.6,147.6) scale(4.50)' color='rgb(  0, 158, 115)'/>
	<use xlink:href='#gpPt1' transform='translate(335.1,148.5) scale(4.50)' color='rgb(  0, 158, 115)'/>
	<use xlink:href='#gpPt1' transform='translate(342.5,149.4) scale(4.50)' color='rgb(  0, 158, 115)'/>
	<use xlink:href='#gpPt1' transform='translate(350.0,150.1) scale(4.50)' color='rgb(  0, 158, 115)'/>
	<use xlink:href='#gpPt1' transform='translate(357.4,150.7) scale(4.50)' color='rgb(  0, 158, 115)'/>
	<use xlink:href='#gpPt1' transform='translate(364.9,151.3) scale(4.50)' color='rgb(  0, 158, 115)'/>
	<use xlink:href='#gpPt1' transform='translate(372.3,151.8) scale(4.50)' color='rgb(  0, 158, 115)'/>
	<use xlink:href='#gpPt1' transform='translate(379.8,152.2) scale(4.50)' color='rgb(  0, 158, 115)'/>
	<use xlink:href='#gpPt1' transform='translate(387.2,152.6) scale(4.50)' color='rgb(  0, 158, 115)'/>
	<use xlink:href='#gpPt1' transform='translate(394.7,153.0) scale(4.50)' color='rgb(  0, 158, 115)'/>
	<use xlink:href='#gpPt1' transform='translate(402.1,153.3) scale(4.50)' color='rgb(  0, 158, 115)'/>
	<use xlink:href='#gpPt1' transform='translate(409.6,153.5) scale(4.50)' color='rgb(  0, 158, 115)'/>
	<use xlink:href='#gpPt1' transform='translate(417.0,153.8) scale(4.50)' color='rgb(  0, 158, 115)'/>
	<use xlink:href='#gpPt1' transform='translate(424.5,154.0) scale(4.50)' color='rgb(  0, 158, 115)'/>
	<use xlink:href='#gpPt1' transform='translate(431.9,154.1) scale(4.50)' color='rgb(  0, 158, 115)'/>
	<use xlink:href='#gpPt1' transform='translate(439.4,154.3) scale(4.50)' color='rgb(  0, 158, 115)'/>
	<use xlink:href='#gpPt1' transform='translate(446.8,154.4) scale(4.50)' color='rgb(  0, 158, 115)'/>
	<use xlink:href='#gpPt1' transform='translate(454.3,154.6) scale(4.50)' color='rgb(  0, 158, 115)'/>
	<use xlink:href='#gpPt1' transform='translate(461.7,154.7) scale(4.50)' color='rgb(  0, 158, 115)'/>
	<use xlink:href='#gpPt1' transform='translate(469.2,154.8) scale(4.50)' color='rgb(  0, 158, 115)'/>
	<use xlink:href='#gpPt1' transform='translate(476.6,154.8) scale(4.50)' color='rgb(  0, 158, 115)'/>
	<use xlink:href='#gpPt1' transform='translate(484.1,154.9) scale(4.50)' color='rgb(  0, 158, 115)'/>
	<use xlink:href='#gpPt1' transform='translate(491.5,155.0) scale(4.50)' color='rgb(  0, 158, 115)'/>
	<use xlink:href='#gpPt1' transform='translate(499.0,155.0) scale(4.50)' color='rgb(  0, 158, 115)'/>
	<use xlink:href='#gpPt1' transform='translate(506.4,155.1) scale(4.50)' color='rgb(  0, 158, 115)'/>
	<use xlink:href='#gpPt1' transform='translate(513.9,155.1) scale(4.50)' color='rgb(  0, 158, 115)'/>
	<use xlink:href='#gpPt1' transform='translate(521.3,155.2) scale(4.50)' color='rgb(  0, 158, 115)'/>
	<use xlink:href='#gpPt1' transform='translate(528.8,155.2) scale(4.50)' color='rgb(  0, 158, 115)'/>
	<use xlink:href='#gpPt1' transform='translate(536.2,155.2) scale(4.50)' color='rgb(  0, 158, 115)'/>
	<use xlink:href='#gpPt1' transform='translate(543.7,155.2) scale(4.50)' color='rgb(  0, 158, 115)'/>
	<use xlink:href='#gpPt1' transform='translate(551.1,155.3) scale(4.50)' color='rgb(  0, 158, 115)'/>
	<use xlink:href='#gpPt1' transform='translate(558.6,155.3) scale(4.50)' color='rgb(  0, 158, 115)'/>
	<use xlink:href='#gpPt1' transform='translate(566.0,155.3) scale(4.50)' color='rgb(  0, 158, 115)'/>
	<use xlink:href='#gpPt1' transform='translate(528.3,117.1) scale(4.50)' color='rgb(  0, 158, 115)'/>
</g>
	</g>
<g fill="none" color="#FFFFFF" stroke="rgb(  0, 158, 115)" stroke-width="2.00" stroke-linecap="butt" stroke-linejoin="miter">
</g>
<g fill="none" color="black" stroke="currentColor" stroke-width="2.00" stroke-linecap="butt" stroke-linejoin="miter">
</g>
<g fill="none" color="black" stroke="black" stroke-width="1.00" stroke-linecap="butt" stroke-linejoin="miter">
</g>
<g fill="none" color="black" stroke="currentColor" stroke-width="1.00" stroke-linecap="butt" stroke-linejoin="miter">
	<path stroke='black'  d='M89.2,63.1 L89.2,155.4 L566.0,155.4 L566.0,63.1 L89.2,63.1 Z  '/></g>
<g fill="none" color="black" stroke="currentColor" stroke-width="1.00" stroke-linecap="butt" stroke-linejoin="miter">
</g>
<g fill="none" color="black" stroke="currentColor" stroke-width="1.00" stroke-linecap="butt" stroke-linejoin="miter">
	<path stroke='black'  d='M80.9,395.4 L71.9,395.4 M566.0,395.4 L575.0,395.4  '/>	<g transform="translate(63.6,399.9)" stroke="none" fill="black" font-family="Arial" font-size="12.00"  text-anchor="end">
		<text><tspan font-family="Arial" >-0.6</tspan></text>
	</g>
</g>
<g fill="none" color="black" stroke="currentColor" stroke-width="1.00" stroke-linecap="butt" stroke-linejoin="miter">
	<path stroke='black'  d='M80.9,380.0 L71.9,380.0 M566.0,380.0 L575.0,380.0  '/>	<g transform="translate(63.6,384.5)" stroke="none" fill="black" font-family="Arial" font-size="12.00"  text-anchor="end">
		<text><tspan font-family="Arial" >-0.5</tspan></text>
	</g>
</g>
<g fill="none" color="black" stroke="currentColor" stroke-width="1.00" stroke-linecap="butt" stroke-linejoin="miter">
	<path stroke='black'  d='M80.9,364.6 L71.9,364.6 M566.0,364.6 L575.0,364.6  '/>	<g transform="translate(63.6,369.1)" stroke="none" fill="black" font-family="Arial" font-size="12.00"  text-anchor="end">
		<text><tspan font-family="Arial" >-0.4</tspan></text>
	</g>
</g>
<g fill="none" color="black" stroke="currentColor" stroke-width="1.00" stroke-linecap="butt" stroke-linejoin="miter">
	<path stroke='black'  d='M80.9,349.2 L71.9,349.2 M566.0,349.2 L575.0,349.2  '/>	<g transform="translate(63.6,353.7)" stroke="none" fill="black" font-family="Arial" font-size="12.00"  text-anchor="end">
		<text><tspan font-family="Arial" >-0.3</tspan></text>
	</g>
</g>
<g fill="none" color="black" stroke="currentColor" stroke-width="1.00" stroke-linecap="butt" stroke-linejoin="miter">
	<path stroke='black'  d='M80.9,333.8 L71.9,333.8 M566.0,333.8 L575.0,333.8  '/>	<g transform="translate(63.6,338.3)" stroke="none" fill="black" font-family="Arial" font-size="12.00"  text-anchor="end">
		<text><tspan font-family="Arial" >-0.2</tspan></text>
	</g>
</g>
<g fill="none" color="black" stroke="currentColor" stroke-width="1.00" stroke-linecap="butt" stroke-linejoin="miter">
	<path stroke='black'  d='M80.9,318.4 L71.9,318.4 M566.0,318.4 L575.0,318.4  '/>	<g transform="translate(63.6,322.9)" stroke="none" fill="black" font-family="Arial" font-size="12.00"  text-anchor="end">
		<text><tspan font-family="Arial" >-0.1</tspan></text>
	</g>
</g>
<g fill="none" color="black" stroke="currentColor" stroke-width="1.00" stroke-linecap="butt" stroke-linejoin="miter">
	<path stroke='black'  d='M80.9,303.0 L71.9,303.0 M566.0,303.0 L575.0,303.0  '/>	<g transform="translate(63.6,307.5)" stroke="none" fill="black" font-family="Arial" font-size="12.00"  text-anchor="end">
		<text><tspan font-family="Arial" > 0</tspan></text>
	</g>
</g>
<g fill="none" color="black" stroke="currentColor" stroke-width="1.00" stroke-linecap="butt" stroke-linejoin="miter">
	<path stroke='black'  d='M129.4,395.4 L129.4,404.4 M129.4,303.0 L129.4,294.0  '/>	<g transform="translate(129.4,426.9)" stroke="none" fill="black" font-family="Arial" font-size="12.00"  text-anchor="middle">
		<text><tspan font-family="Arial" > 2</tspan></text>
	</g>
</g>
<g fill="none" color="black" stroke="currentColor" stroke-width="1.00" stroke-linecap="butt" stroke-linejoin="miter">
	<path stroke='black'  d='M226.4,395.4 L226.4,404.4 M226.4,303.0 L226.4,294.0  '/>	<g transform="translate(226.4,426.9)" stroke="none" fill="black" font-family="Arial" font-size="12.00"  text-anchor="middle">
		<text><tspan font-family="Arial" > 4</tspan></text>
	</g>
</g>
<g fill="none" color="black" stroke="currentColor" stroke-width="1.00" stroke-linecap="butt" stroke-linejoin="miter">
	<path stroke='black'  d='M323.5,395.4 L323.5,404.4 M323.5,303.0 L323.5,294.0  '/>	<g transform="translate(323.5,426.9)" stroke="none" fill="black" font-family="Arial" font-size="12.00"  text-anchor="middle">
		<text><tspan font-family="Arial" > 6</tspan></text>
	</g>
</g>
<g fill="none" color="black" stroke="currentColor" stroke-width="1.00" stroke-linecap="butt" stroke-linejoin="miter">
	<path stroke='black'  d='M420.5,395.4 L420.5,404.4 M420.5,303.0 L420.5,294.0  '/>	<g transform="translate(420.5,426.9)" stroke="none" fill="black" font-family="Arial" font-size="12.00"  text-anchor="middle">
		<text><tspan font-family="Arial" > 8</tspan></text>
	</g>
</g>
<g fill="none" color="black" stroke="currentColor" stroke-width="1.00" stroke-linecap="butt" stroke-linejoin="miter">
	<path stroke='black'  d='M517.5,395.4 L517.5,404.4 M517.5,303.0 L517.5,294.0  '/>	<g transform="translate(517.5,426.9)" stroke="none" fill="black" font-family="Arial" font-size="12.00"  text-anchor="middle">
		<text><tspan font-family="Arial" > 10</tspan></text>
	</g>
</g>
<g fill="none" color="black" stroke="currentColor" stroke-width="1.00" stroke-linecap="butt" stroke-linejoin="miter">
</g>
<g fill="none" color="black" stroke="currentColor" stroke-width="1.00" stroke-linecap="butt" stroke-linejoin="miter">
	<path stroke='black'  d='M80.9,303.0 L80.9,395.4 L566.0,395.4 L566.0,303.0 L80.9,303.0 Z  '/></g>
<g fill="none" color="black" stroke="currentColor" stroke-width="1.00" stroke-linecap="butt" stroke-linejoin="miter">
	<g transform="translate(17.6,349.2) rotate(270)" stroke="none" fill="black" font-family="Arial" font-size="12.00"  text-anchor="middle">
		<text><tspan font-family="Arial" >e [Hatree]</tspan></text>
	</g>
</g>
<g fill="none" color="black" stroke="currentColor" stroke-width="1.00" stroke-linecap="butt" stroke-linejoin="miter">
	<g transform="translate(323.4,453.9)" stroke="none" fill="black" font-family="Arial" font-size="12.00"  text-anchor="middle">
		<text><tspan font-family="Arial" >r</tspan><tspan font-family="Arial"  font-size="9.6" dy="3.60px">max</tspan><tspan font-family="Arial"  font-size="12.0" dy="-3.60px"> [a</tspan><tspan font-family="Arial"  font-size="9.6" dy="3.60px">Bohr</tspan><tspan font-family="Arial"  font-size="12.0" dy="-3.60px">]</tspan></text>
	</g>
</g>
<g fill="none" color="black" stroke="currentColor" stroke-width="1.00" stroke-linecap="butt" stroke-linejoin="miter">
	<g transform="translate(323.4,271.5)" stroke="none" fill="black" font-family="Arial" font-size="12.00"  text-anchor="middle">
		<text><tspan font-family="Arial" >Obtained energy as function of r</tspan><tspan font-family="Arial"  font-size="9.6" dy="3.60px">max</tspan><tspan font-size="12.0" dy="-3.60"></tspan></text>
	</g>
</g>
	<g id="gnuplot_plot_1b" ><title>gnuplot_plot_1b</title>
<g fill="none" color="black" stroke="currentColor" stroke-width="1.00" stroke-linecap="butt" stroke-linejoin="miter">
	<use xlink:href='#gpPt0' transform='translate(129.4,322.4) scale(4.50)' color='rgb(255,   0,   0)'/>
</g>
	</g>
	<g id="gnuplot_plot_2b" ><title>gnuplot_plot_2b</title>
<g fill="none" color="black" stroke="currentColor" stroke-width="1.00" stroke-linecap="butt" stroke-linejoin="miter">
	<use xlink:href='#gpPt0' transform='translate(177.9,368.3) scale(4.50)' color='rgb(255,   0,   0)'/>
</g>
	</g>
	<g id="gnuplot_plot_3b" ><title>gnuplot_plot_3b</title>
<g fill="none" color="black" stroke="currentColor" stroke-width="1.00" stroke-linecap="butt" stroke-linejoin="miter">
	<use xlink:href='#gpPt0' transform='translate(226.4,377.4) scale(4.50)' color='rgb(255,   0,   0)'/>
</g>
	</g>
	<g id="gnuplot_plot_4b" ><title>gnuplot_plot_4b</title>
<g fill="none" color="black" stroke="currentColor" stroke-width="1.00" stroke-linecap="butt" stroke-linejoin="miter">
	<use xlink:href='#gpPt0' transform='translate(274.9,379.5) scale(4.50)' color='rgb(255,   0,   0)'/>
</g>
	</g>
	<g id="gnuplot_plot_5b" ><title>gnuplot_plot_5b</title>
<g fill="none" color="black" stroke="currentColor" stroke-width="1.00" stroke-linecap="butt" stroke-linejoin="miter">
	<use xlink:href='#gpPt0' transform='translate(517.5,380.0) scale(4.50)' color='rgb(255,   0,   0)'/>
</g>
	</g>
	<g id="gnuplot_plot_6b" ><title>minimum value</title>
<g fill="none" color="black" stroke="currentColor" stroke-width="1.00" stroke-linecap="butt" stroke-linejoin="miter">
	<g transform="translate(498.9,325.5)" stroke="none" fill="black" font-family="Arial" font-size="12.00"  text-anchor="end">
		<text><tspan font-family="Arial" >minimum value</tspan></text>
	</g>
</g>
<g fill="none" color="black" stroke="currentColor" stroke-width="1.00" stroke-linecap="butt" stroke-linejoin="miter">
	<path stroke='rgb(  0, 114, 178)'  d='M507.2,321.0 L549.4,321.0 M80.9,380.0 L85.8,380.0 L90.7,380.0 L95.6,380.0 L100.5,380.0 L105.4,380.0
		L110.3,380.0 L115.2,380.0 L120.1,380.0 L125.0,380.0 L129.9,380.0 L134.8,380.0 L139.7,380.0 L144.6,380.0
		L149.5,380.0 L154.4,380.0 L159.3,380.0 L164.2,380.0 L169.1,380.0 L174.0,380.0 L178.9,380.0 L183.8,380.0
		L188.7,380.0 L193.6,380.0 L198.5,380.0 L203.4,380.0 L208.3,380.0 L213.2,380.0 L218.1,380.0 L223.0,380.0
		L227.9,380.0 L232.8,380.0 L237.7,380.0 L242.6,380.0 L247.5,380.0 L252.4,380.0 L257.3,380.0 L262.2,380.0
		L267.1,380.0 L272.0,380.0 L276.9,380.0 L281.8,380.0 L286.7,380.0 L291.6,380.0 L296.5,380.0 L301.4,380.0
		L306.3,380.0 L311.2,380.0 L316.1,380.0 L321.0,380.0 L325.9,380.0 L330.8,380.0 L335.7,380.0 L340.6,380.0
		L345.5,380.0 L350.4,380.0 L355.3,380.0 L360.2,380.0 L365.1,380.0 L370.0,380.0 L374.9,380.0 L379.8,380.0
		L384.7,380.0 L389.6,380.0 L394.5,380.0 L399.4,380.0 L404.3,380.0 L409.2,380.0 L414.1,380.0 L419.0,380.0
		L423.9,380.0 L428.8,380.0 L433.7,380.0 L438.6,380.0 L443.5,380.0 L448.4,380.0 L453.3,380.0 L458.2,380.0
		L463.1,380.0 L468.0,380.0 L472.9,380.0 L477.8,380.0 L482.7,380.0 L487.6,380.0 L492.5,380.0 L497.4,380.0
		L502.3,380.0 L507.2,380.0 L512.1,380.0 L517.0,380.0 L521.9,380.0 L526.8,380.0 L531.7,380.0 L536.6,380.0
		L541.5,380.0 L546.4,380.0 L551.3,380.0 L556.2,380.0 L561.1,380.0 L566.0,380.0  '/></g>
	</g>
<g fill="none" color="#FFFFFF" stroke="rgb(  0, 114, 178)" stroke-width="2.00" stroke-linecap="butt" stroke-linejoin="miter">
</g>
<g fill="none" color="black" stroke="currentColor" stroke-width="2.00" stroke-linecap="butt" stroke-linejoin="miter">
</g>
<g fill="none" color="black" stroke="black" stroke-width="1.00" stroke-linecap="butt" stroke-linejoin="miter">
</g>
<g fill="none" color="black" stroke="currentColor" stroke-width="1.00" stroke-linecap="butt" stroke-linejoin="miter">
	<path stroke='black'  d='M80.9,303.0 L80.9,395.4 L566.0,395.4 L566.0,303.0 L80.9,303.0 Z  '/></g>
<g fill="none" color="black" stroke="currentColor" stroke-width="1.00" stroke-linecap="butt" stroke-linejoin="miter">
</g>
</g>
</svg>

