0 1 1 1
0.1 1 0.950083 0.950132
0.2 1 0.900665 0.900852
0.3 1 0.85224 0.852644
0.4 1 0.805291 0.805981
0.5 1 0.760287 0.761321
0.6 1 0.717679 0.719104
0.7 1 0.677891 0.679746
0.8 1 0.641322 0.643634
0.9 1 0.608336 0.611123
1 1 0.579264 0.582536
1.1 1 0.554396 0.558154
1.2 1 0.53398 0.538218
1.3 1 0.51822 0.522924
1.4 1 0.507274 0.512425
1.5 1 0.501252 0.506824
1.6 1 0.500212 0.506176
1.7 1 0.504167 0.510488
1.8 1 0.513075 0.519717
1.9 1 0.526849 0.533772
2 1 0.54535 0.552514
2.1 1 0.568394 0.575757
2.2 1 0.595751 0.603273
2.3 1 0.627146 0.634789
2.4 1 0.662267 0.669994
2.5 1 0.700763 0.708542
2.6 1 0.742248 0.750052
2.7 1 0.786309 0.794116
2.8 1 0.832505 0.840299
2.9 1 0.880375 0.88815
3 1 0.929439 0.937196
3.1 1 0.979209 0.986958
3.2 1 1.02919 1.03695
3.3 1 1.07887 1.08668
3.4 1 1.12777 1.13566
3.5 1 1.17539 1.18341
3.6 1 1.22126 1.22947
3.7 1 1.26492 1.27339
3.8 1 1.30593 1.31474
3.9 1 1.34388 1.35312
4 1 1.3784 1.38815
4.1 1 1.40914 1.41949
4.2 1 1.43579 1.44685
4.3 1 1.45809 1.46995
4.4 1 1.4758 1.48857
4.5 1 1.48877 1.50253
4.6 1 1.49685 1.5117
4.7 1 1.49996 1.51598
4.8 1 1.49809 1.51533
4.9 1 1.49123 1.50977
5 1 1.47947 1.49933
5.1 1 1.46291 1.48414
5.2 1 1.44173 1.46432
5.3 1 1.41614 1.44009
5.4 1 1.38639 1.41166
5.5 1 1.35277 1.37931
5.6 1 1.31564 1.34337
5.7 1 1.27535 1.30418
5.8 1 1.2323 1.26212
5.9 1 1.18694 1.21759
6 1 1.13971 1.17104
6.1 1 1.09108 1.12292
6.2 1 1.04155 1.0737
6.3 1 0.991594 1.02386
6.4 1 0.941726 0.973879
6.5 1 0.89244 0.924258
6.6 1 0.844229 0.875478
6.7 1 0.797574 0.828019
6.8 1 0.752942 0.782347
6.9 1 0.710778 0.738912
7 1 0.671504 0.698139
7.1 1 0.635513 0.660431
7.2 1 0.603163 0.62616
7.3 1 0.574778 0.595663
7.4 1 0.550642 0.569242
7.5 1 0.530996 0.547157
7.6 1 0.516036 0.529627
7.7 1 0.505911 0.516824
7.8 1 0.500723 0.508876
7.9 1 0.500524 0.505861
8 1 0.505315 0.507809
8.1 1 0.51505 0.514701
8.2 1 0.529629 0.526468
8.3 1 0.548909 0.542994
8.4 1 0.572695 0.564116
8.5 1 0.600751 0.589625
8.6 1 0.632797 0.619269
8.7 1 0.668511 0.652756
8.8 1 0.707537 0.689755
8.9 1 0.749486 0.729901
9 1 0.793937 0.7728
9.1 1 0.840448 0.818028
9.2 1 0.888553 0.865141
9.3 1 0.937771 0.913677
9.4 1 0.987611 0.963158
9.5 1 1.03757 1.0131
9.6 1 1.08716 1.06302
9.7 1 1.13588 1.11241
9.8 1 1.18324 1.16081
9.9 1 1.22877 1.20774
10 1 1.27201 1.25273
10.1 1 1.31254 1.29536
10.2 1 1.34994 1.3352
10.3 1 1.38385 1.37188
10.4 1 1.41392 1.40502
10.5 1 1.43985 1.43432
10.6 1 1.46139 1.45948
10.7 1 1.47832 1.48026
10.8 1 1.49047 1.49647
10.9 1 1.49773 1.50793
11 1 1.5 1.51455
11.1 1 1.49728 1.51626
11.2 1 1.4896 1.51304
11.3 1 1.47702 1.50492
11.4 1 1.45967 1.49198
11.5 1 1.43773 1.47435
11.6 1 1.41142 1.45219
11.7 1 1.381 1.42573
11.8 1 1.34677 1.39522
11.9 1 1.30907 1.36095
12 1 1.26829 1.32326
12.1 1 1.22483 1.28252
12.2 1 1.17912 1.23912
12.3 1 1.13162 1.19348
12.4 1 1.08281 1.14605
12.5 1 1.03316 1.09729
12.6 1 0.98319 1.04768
12.7 1 0.933385 0.997709
12.8 1 0.884245 0.947856
12.9 1 0.836262 0.898614
13 1 0.789915 0.850465
13.1 1 0.745667 0.803883
13.2 1 0.70396 0.759326
13.3 1 0.665211 0.71723
13.4 1 0.629807 0.678012
13.5 1 0.598102 0.642056
13.6 1 0.570412 0.609719
13.7 1 0.547015 0.581318
13.8 1 0.528144 0.557134
13.9 1 0.513988 0.537406
14 1 0.504687 0.522329
14.1 1 0.500336 0.512052
14.2 1 0.500977 0.506677
14.3 1 0.506604 0.506257
14.4 1 0.517161 0.510795
14.5 1 0.532543 0.520248
14.6 1 0.552595 0.534521
14.7 1 0.577117 0.553474
14.8 1 0.605865 0.576919
14.9 1 0.638551 0.604625
15 1 0.674848 0.636318
15.1 1 0.714394 0.671685
15.2 1 0.756794 0.710377
15.3 1 0.801624 0.752014
15.4 1 0.848435 0.796185
15.5 1 0.896762 0.842456
15.6 1 0.94612 0.890373
15.7 1 0.996016 0.939463
15.8 1 1.04595 0.989247
15.9 1 1.09543 1.03924
16 1 1.14395 1.08894
16.1 1 1.19104 1.13788
16.2 1 1.23621 1.18556
16.3 1 1.27903 1.23154
16.4 1 1.31906 1.27535
16.5 1 1.3559 1.31657
16.6 1 1.38918 1.3548
16.7 1 1.41858 1.38967
16.8 1 1.44379 1.42084
16.9 1 1.46457 1.44801
17 1 1.48071 1.47091
17.1 1 1.49204 1.48932
17.2 1 1.49846 1.50307
17.3 1 1.4999 1.51201
17.4 1 1.49634 1.51606
17.5 1 1.48783 1.51519
17.6 1 1.47443 1.5094
17.7 1 1.4563 1.49875
17.8 1 1.43361 1.48334
17.9 1 1.40659 1.46332
18 1 1.3755 1.43888
18.1 1 1.34067 1.41026
18.2 1 1.30243 1.37775
18.3 1 1.26116 1.34165
18.4 1 1.21729 1.30232
18.5 1 1.17125 1.26013
18.6 1 1.12349 1.2155
18.7 1 1.0745 1.16887
18.8 1 1.02477 1.12069
18.9 1 0.974791 1.07143
19 1 0.925062 1.02157
19.1 1 0.876082 0.971593
19.2 1 0.828341 0.921999
19.3 1 0.782314 0.873269
19.4 1 0.738463 0.825881
19.5 1 0.697224 0.780301
19.6 1 0.659011 0.736977
19.7 1 0.624205 0.696336
19.8 1 0.593154 0.658777
19.9 1 0.566168 0.624671
20 1 0.543516 0.594354
20.1 1 0.525425 0.568126
20.2 1 0.512077 0.546245
20.3 1 0.503603 0.528927
20.4 1 0.500089 0.516345
20.5 1 0.501571 0.508621
20.6 1 0.508032 0.505834
20.7 1 0.519409 0.508009
20.8 1 0.535588 0.515126
20.9 1 0.556407 0.527114
21 1 0.581658 0.543855
21.1 1 0.61109 0.565184
21.2 1 0.644407 0.590888
21.3 1 0.681277 0.620716
21.4 1 0.721332 0.654371
21.5 1 0.764171 0.691523
21.6 1 0.809366 0.731805
21.7 1 0.856466 0.774821
21.8 1 0.905001 0.820146
21.9 1 0.954484 0.867335
22 1 1.00442 0.915926
22.1 1 1.05432 0.96544
22.2 1 1.10367 1.01539
22.3 1 1.15198 1.06529
22.4 1 1.19878 1.11466
22.5 1 1.24359 1.163
22.6 1 1.28597 1.20985
22.7 1 1.32549 1.25475
22.8 1 1.36176 1.29725
22.9 1 1.39441 1.33696
23 1 1.42312 1.37348
23.1 1 1.44761 1.40646
23.2 1 1.46762 1.43557
23.3 1 1.48296 1.46054
23.4 1 1.49347 1.48112
23.5 1 1.49906 1.4971
23.6 1 1.49965 1.50835
23.7 1 1.49526 1.51475
23.8 1 1.48592 1.51623
23.9 1 1.47172 1.51278
24 1 1.45281 1.50444
24.1 1 1.42937 1.49128
24.2 1 1.40164 1.47344
24.3 1 1.3699 1.45108
24.4 1 1.33447 1.42442
24.5 1 1.29569 1.39373
24.6 1 1.25396 1.3593
24.7 1 1.20969 1.32146
24.8 1 1.16333 1.28059
24.9 1 1.11533 1.23707
25 1 1.06618 1.19134
25.1 1 1.01637 1.14384
25.2 1 0.966399 1.09504
25.3 1 0.916761 1.0454
25.4 1 0.867955 0.995418
25.5 1 0.820468 0.945581
25.6 1 0.774775 0.896378
25.7 1 0.731333 0.84829
25.8 1 0.690575 0.801791
25.9 1 0.652908 0.757335
26 1 0.61871 0.715362
26.1 1 0.588321 0.676284
26.2 1 0.562046 0.640487
26.3 1 0.540146 0.608322
26.4 1 0.522841 0.580108
26.5 1 0.510304 0.556123
26.6 1 0.50266 0.536604
26.7 1 0.499985 0.521744
26.8 1 0.502306 0.51169
26.9 1 0.509599 0.506541
27 1 0.521793 0.506348
27.1 1 0.538765 0.511113
27.2 1 0.560345 0.520789
27.3 1 0.586318 0.535281
27.4 1 0.616425 0.554444
27.5 1 0.650364 0.57809
27.6 1 0.687796 0.605986
27.7 1 0.728348 0.637854
27.8 1 0.771614 0.673382
27.9 1 0.817163 0.712219
28 1 0.864538 0.753982
28.1 1 0.913266 0.79826
28.2 1 0.962862 0.844617
28.3 1 1.01283 0.892598
28.4 1 1.06267 0.941732
28.5 1 1.11188 0.991537
28.6 1 1.15997 1.04152
28.7 1 1.20647 1.09121
28.8 1 1.2509 1.14009
28.9 1 1.29283 1.18771
29 1 1.33183 1.2336
29.1 1 1.36751 1.2773
29.2 1 1.39952 1.3184
29.3 1 1.42755 1.35648
29.4 1 1.45129 1.39119
29.5 1 1.47053 1.42219
29.6 1 1.48507 1.44916
29.7 1 1.49476 1.47186
29.8 1 1.49951 1.49006
29.9 1 1.49927 1.50359
30 1 1.49404 1.51231
30.1 1 1.48387 1.51614
30.2 1 1.46887 1.51504
30.3 1 1.44918 1.50903
30.4 1 1.42501 1.49815
30.5 1 1.39658 1.48253
30.6 1 1.3642 1.4623
30.7 1 1.32818 1.43767
30.8 1 1.28887 1.40886
30.9 1 1.24669 1.37618
31 1 1.20203 1.33992
31.1 1 1.15536 1.30045
31.2 1 1.10714 1.25814
31.3 1 1.05784 1.21341
31.4 1 1.00797 1.1667
31.5 1 0.958016 1.11846
31.6 1 0.908483 1.06915
31.7 1 0.859864 1.01928
31.8 1 0.812646 0.969308
31.9 1 0.7673 0.919742
32 1 0.724278 0.871062
32.1 1 0.684012 0.823746
32.2 1 0.646903 0.778259
32.3 1 0.613322 0.735049
32.4 1 0.583604 0.694539
32.5 1 0.558047 0.65713
32.6 1 0.536906 0.62319
32.7 1 0.520392 0.593054
32.8 1 0.508669 0.567019
32.9 1 0.501856 0.545342
33 1 0.500021 0.528238
33.1 1 0.503181 0.515875
33.2 1 0.511305 0.508377
33.3 1 0.524312 0.505816
33.4 1 0.542072 0.508219
33.5 1 0.564407 0.515561
33.6 1 0.591095 0.52777
33.7 1 0.621868 0.544726
33.8 1 0.65642 0.56626
33.9 1 0.694404 0.59216
34 1 0.735442 0.62217
34.1 1 0.779123 0.655994
34.2 1 0.825011 0.693298
34.3 1 0.872648 0.733715
34.4 1 0.921557 0.776846
34.5 1 0.97125 0.822268
34.6 1 1.02123 0.869533
34.7 1 1.071 0.918177
34.8 1 1.12006 0.967722
34.9 1 1.16792 1.01768
35 1 1.2141 1.06757
35.1 1 1.25814 1.1169
35.2 1 1.2996 1.16518
35.3 1 1.33807 1.21195
35.4 1 1.37316 1.25675
35.5 1 1.40453 1.29914
35.6 1 1.43185 1.33871
35.7 1 1.45485 1.37508
35.8 1 1.47332 1.40789
35.9 1 1.48705 1.43681
36 1 1.49591 1.46159
36.1 1 1.49982 1.48196
36.2 1 1.49874 1.49773
36.3 1 1.49267 1.50876
36.4 1 1.48169 1.51493
36.5 1 1.46588 1.51619
36.6 1 1.44543 1.51251
36.7 1 1.42052 1.50395
36.8 1 1.39141 1.49057
36.9 1 1.35839 1.47252
37 1 1.32179 1.44996
37.1 1 1.28197 1.42311
37.2 1 1.23934 1.39224
37.3 1 1.19432 1.35764
37.4 1 1.14735 1.31966
37.5 1 1.09891 1.27865
37.6 1 1.04948 1.23503
37.7 1 0.999562 1.18921
37.8 1 0.949645 1.14163
37.9 1 0.900231 1.09278
38 1 0.851813 1.04311
38.1 1 0.804877 0.993127
38.2 1 0.75989 0.943308
38.3 1 0.717302 0.894145
38.4 1 0.677539 0.846119
38.5 1 0.640998 0.799702
38.6 1 0.608043 0.75535
38.7 1 0.579005 0.7135
38.8 1 0.554174 0.674564
38.9 1 0.533797 0.638924
39 1 0.518078 0.606934
39.1 1 0.507174 0.578907
39.2 1 0.501195 0.555122
39.3 1 0.500199 0.535812
39.4 1 0.504197 0.521169
39.5 1 0.513149 0.511338
39.6 1 0.526966 0.506415
39.7 1 0.545509 0.50645
39.8 1 0.568593 0.511441
39.9 1 0.595987 0.521341
40 1 0.627418 0.53605
40.1 1 0.662573 0.555424
40.2 1 0.701098 0.579271
40.3 1 0.74261 0.607354
40.4 1 0.786694 0.639399
40.5 1 0.832909 0.675087
40.6 1 0.880794 0.714067
40.7 1 0.929869 0.755955
40.8 1 0.979646 0.800338
40.9 1 1.02963 0.846781
41 1 1.07931 0.894826
41.1 1 1.1282 0.944002
41.2 1 1.17581 0.993827
41.3 1 1.22167 1.04381
41.4 1 1.2653 1.09347
41.5 1 1.30629 1.14231
41.6 1 1.34422 1.18986
41.7 1 1.37871 1.23566
41.8 1 1.40941 1.27925
41.9 1 1.43603 1.32021
42 1 1.45829 1.35816
42.1 1 1.47596 1.3927
42.2 1 1.48889 1.42352
42.3 1 1.49692 1.45031
42.4 1 1.5 1.4728
42.5 1 1.49807 1.49079
42.6 1 1.49117 1.5041
42.7 1 1.47937 1.5126
42.8 1 1.46277 1.51621
42.9 1 1.44155 1.51488
43 1 1.41592 1.50864
43.1 1 1.38613 1.49755
43.2 1 1.35248 1.48171
43.3 1 1.31531 1.46127
43.4 1 1.27499 1.43644
43.5 1 1.23193 1.40746
43.6 1 1.18654 1.3746
43.7 1 1.1393 1.33818
43.8 1 1.09066 1.29857
43.9 1 1.04111 1.25614
44 1 0.991155 1.21131
44.1 1 0.941288 1.16452
44.2 1 0.892006 1.11622
44.3 1 0.843804 1.06688
44.4 1 0.797163 1.01698
44.5 1 0.752548 0.967024
44.6 1 0.710405 0.917487
44.7 1 0.671157 0.868858
44.8 1 0.635193 0.821615
44.9 1 0.602875 0.776222
45 1 0.574525 0.733125
45.1 1 0.550426 0.692749
45.2 1 0.530819 0.65549
45.3 1 0.5159 0.621717
45.4 1 0.505817 0.591762
45.5 1 0.500673 0.565921
45.6 1 0.500518 0.544449
45.7 1 0.505353 0.527559
45.8 1 0.51513 0.515417
45.9 1 0.529753 0.508143
46 1 0.549074 0.505809
46.1 1 0.5729 0.508439
46.2 1 0.600994 0.516007
46.3 1 0.633074 0.528437
46.4 1 0.668821 0.545606
46.5 1 0.707877 0.567346
46.6 1 0.749852 0.593441
46.7 1 0.794326 0.623633
46.8 1 0.840855 0.657624
46.9 1 0.888974 0.69508
47 1 0.938202 0.735631
47.1 1 0.988048 0.778877
47.2 1 1.03801 0.824394
47.3 1 1.0876 0.871733
47.4 1 1.13631 0.920429
47.5 1 1.18366 0.970006
47.6 1 1.22917 1.01998
47.7 1 1.2724 1.06985
47.8 1 1.3129 1.11914
47.9 1 1.35027 1.16737
48 1 1.38415 1.21406
48.1 1 1.41419 1.25876
48.2 1 1.44009 1.30103
48.3 1 1.46159 1.34046
48.4 1 1.47848 1.37667
48.5 1 1.49059 1.40931
48.6 1 1.49779 1.43805
48.7 1 1.50003 1.46262
48.8 1 1.49726 1.48279
48.9 1 1.48953 1.49835
49 1 1.47691 1.50916
49.1 1 1.45952 1.5151
49.2 1 1.43755 1.51613
49.3 1 1.41119 1.51223
49.4 1 1.38074 1.50345
49.5 1 1.34647 1.48985
49.6 1 1.30875 1.47159
49.7 1 1.26794 1.44883
49.8 1 1.22445 1.42179
49.9 1 1.17872 1.39074
50 1 1.1312 1.35598
50.1 1 1.08238 1.31785
50.2 1 1.03273 1.27671
50.3 1 0.982751 1.23298
50.4 1 0.932947 1.18706
50.5 1 0.883812 1.13942
50.6 1 0.835839 1.09052
50.7 1 0.789506 1.04083
50.8 1 0.745276 0.990836
50.9 1 0.703591 0.941036
51 1 0.664867 0.891913
51.1 1 0.629493 0.84395
51.2 1 0.59782 0.797617
51.3 1 0.570165 0.75337
51.4 1 0.546806 0.711644
51.5 1 0.527974 0.67285
51.6 1 0.513859 0.63737
51.7 1 0.504601 0.605554
51.8 1 0.500293 0.577715
51.9 1 0.500978 0.55413
52 1 0.506649 0.53503
52.1 1 0.517249 0.520604
52.2 1 0.532673 0.510996
52.3 1 0.552767 0.506299
52.4 1 0.577328 0.506562
52.5 1 0.606113 0.51178
52.6 1 0.638834 0.521903
52.7 1 0.675164 0.536829
52.8 1 0.714738 0.556413
52.9 1 0.757164 0.580459
53 1 0.802015 0.608732
53.1 1 0.848845 0.640951
53.2 1 0.897185 0.676798
53.3 1 0.946553 0.715921
53.4 1 0.996454 0.757933
53.5 1 1.04639 0.802421
53.6 1 1.09586 0.848948
53.7 1 1.14438 0.897056
53.8 1 1.19145 0.946274
53.9 1 1.23661 0.996117
54 1 1.27941 1.0461
54.1 1 1.31941 1.09573
54.2 1 1.35623 1.14452
54.3 1 1.38948 1.192
54.4 1 1.41884 1.23771
54.5 1 1.44402 1.28119
54.6 1 1.46476 1.32203
54.7 1 1.48086 1.35982
54.8 1 1.49215 1.3942
54.9 1 1.49852 1.42484
55 1 1.49992 1.45144
55.1 1 1.49632 1.47374
55.2 1 1.48775 1.49152
55.3 1 1.47432 1.50461
55.4 1 1.45615 1.51288
55.5 1 1.43342 1.51626
55.6 1 1.40636 1.51471
55.7 1 1.37523 1.50825
55.8 1 1.34036 1.49693
55.9 1 1.30209 1.48088
56 1 1.2608 1.46024
56.1 1 1.21691 1.43521
56.2 1 1.17084 1.40604
56.3 1 1.12307 1.37301
56.4 1 1.07407 1.33644
56.5 1 1.02433 1.29669
56.6 1 0.974352 1.25414
56.7 1 0.924625 1.20921
56.8 1 0.875651 1.16234
56.9 1 0.82792 1.11398
57 1 0.781908 1.0646
57.1 1 0.738075 1.01469
57.2 1 0.69686 0.96474
57.3 1 0.658673 0.915233
57.4 1 0.623896 0.866657
57.5 1 0.592878 0.819488
57.6 1 0.565927 0.77419
57.7 1 0.543313 0.731208
57.8 1 0.525263 0.690965
57.9 1 0.511955 0.653858
58 1 0.503524 0.620252
58.1 1 0.500054 0.590479
58.2 1 0.501579 0.564832
58.3 1 0.508085 0.543566
58.4 1 0.519505 0.526889
58.5 1 0.535726 0.514968
58.6 1 0.556586 0.507919
58.7 1 0.581876 0.505813
58.8 1 0.611345 0.50867
58.9 1 0.644696 0.516462
59 1 0.681598 0.529113
59.1 1 0.721681 0.546496
59.2 1 0.764545 0.568441
59.3 1 0.809761 0.59473
59.4 1 0.856879 0.625103
59.5 1 0.905426 0.659262
59.6 1 0.954918 0.696868
59.7 1 1.00486 0.737552
59.8 1 1.05476 0.780913
59.9 1 1.1041 0.826523
60 1 1.15241 0.873936
60.1 1 1.19919 0.922684
60.2 1 1.24399 0.97229
60.3 1 1.28634 1.02227
60.4 1 1.32584 1.07213
60.5 1 1.36208 1.12138
60.6 1 1.3947 1.16955
60.7 1 1.42338 1.21616
60.8 1 1.44783 1.26075
60.9 1 1.4678 1.3029
61 1 1.4831 1.3422
61.1 1 1.49357 1.37825
61.2 1 1.49911 1.41072
61.3 1 1.49966 1.43928
61.4 1 1.49523 1.46365
61.5 1 1.48584 1.48361
61.6 1 1.4716 1.49896
61.7 1 1.45264 1.50955
61.8 1 1.42917 1.51527
61.9 1 1.4014 1.51607
62 1 1.36963 1.51195
62.1 1 1.33416 1.50294
62.2 1 1.29535 1.48913
62.3 1 1.2536 1.47065
62.4 1 1.2093 1.44769
62.5 1 1.16292 1.42046
62.6 1 1.11491 1.38923
62.7 1 1.06575 1.35431
62.8 1 1.01593 1.31603
